solid Pentagonal Prism
	facet normal 0.4099545171000806 0.587785152821879 0.6974567427671771
		outer loop
			vertex 873.7107411888622 0 486.4454537121482
			vertex -301.85955043609437 819.9090244226586 486.4454537121482
			vertex 0 0 999.9994034067756
		endloop
	endfacet
	facet normal 0.40995464643267454 0.5877853382565438 0.6974565104713707
		outer loop
			vertex -301.85955043609437 819.9090244226586 486.4454537121482
			vertex 873.7107411888622 0 486.4454537121482
			vertex 571.8509321217537 819.9090244226586 -27.108677024189262
		endloop
	endfacet
	facet normal -0.6932262667860043 0.18163560782954433 0.6974567004526743
		outer loop
			vertex -301.85955043609437 819.9090244226586 486.4454537121482
			vertex -665.1306903951438 -566.5432202343285 486.4454537121482
			vertex 0 0 999.9994034067756
		endloop
	endfacet
	facet normal -0.6932263293988589 0.18163562423504487 0.6974566339471798
		outer loop
			vertex -665.1306903951438 -566.5432202343285 486.4454537121482
			vertex -301.85955043609437 819.9090244226586 486.4454537121482
			vertex -966.9903270415763 253.36580418833015 -27.108677024189262
		endloop
	endfacet
	facet normal 0.9465922197267144 0.1816356820392056 -0.2664050460539442
		outer loop
			vertex 748.5625555340225 -566.5432202343285 -344.5026320869136
			vertex 571.8509321217537 819.9090244226586 -27.108677024189262
			vertex 873.7107411888622 0 486.4454537121482
		endloop
	endfacet
	facet normal 0.9465923205520691 0.18163562221429308 -0.26640472858918224
		outer loop
			vertex 571.8509321217537 819.9090244226586 -27.108677024189262
			vertex 748.5625555340225 -566.5432202343285 -344.5026320869136
			vertex 446.7030050979282 253.36580418833015 -858.0567542022172
		endloop
	endfacet
	facet normal -0.8383922100771225 -0.47552826306282203 -0.2664045290727124
		outer loop
			vertex -966.9903270415763 253.36580418833015 -27.108677024189262
			vertex -202.49351471165988 -916.6865947448493 -344.5026320869136
			vertex -665.1306903951438 -566.5432202343285 486.4454537121482
		endloop
	endfacet
	facet normal -0.8383921663176371 -0.47552813520475407 -0.26640489501116293
		outer loop
			vertex -202.49351471165988 -916.6865947448493 -344.5026320869136
			vertex -966.9903270415763 253.36580418833015 -27.108677024189262
			vertex -504.35306514775425 -96.7771392705001 -858.0567542022172
		endloop
	endfacet
	facet normal 0.17507174044757656 -0.47552817960329924 -0.8621037269956722
		outer loop
			vertex -202.49351471165988 -916.6865947448493 -344.5026320869136
			vertex 446.7030050979282 253.36580418833015 -858.0567542022172
			vertex 748.5625555340225 -566.5432202343285 -344.5026320869136
		endloop
	endfacet
	facet normal 0.17507149040647318 -0.47552808585334944 -0.8621038294843063
		outer loop
			vertex 446.7030050979282 253.36580418833015 -858.0567542022172
			vertex -202.49351471165988 -916.6865947448493 -344.5026320869136
			vertex -504.35306514775425 -96.7771392705001 -858.0567542022172
		endloop
	endfacet
	facet normal 0.297849483209409 -0.809017050718474 0.5067317801348854
		outer loop
			vertex -665.1306903951438 -566.5432202343285 486.4454537121482
			vertex 748.5625555340225 -566.5432202343285 -344.5026320869136
			vertex 873.7107411888622 0 486.4454537121482
		endloop
	endfacet
	facet normal 0.29784942865892133 -0.8090169025487536 0.5067320487575012
		outer loop
			vertex -665.1306903951438 -566.5432202343285 486.4454537121482
			vertex 873.7107411888622 0 486.4454537121482
			vertex 0 0 999.9994034067756
		endloop
	endfacet
	facet normal 0.29784975927667423 -0.8090166548982771 0.5067322498085449
		outer loop
			vertex 748.5625555340225 -566.5432202343285 -344.5026320869136
			vertex -665.1306903951438 -566.5432202343285 486.4454537121482
			vertex -202.49351471165988 -916.6865947448493 -344.5026320869136
		endloop
	endfacet
	facet normal -0.29784949583816783 0.8090169943736925 -0.5067318626685186
		outer loop
			vertex 571.8509321217537 819.9090244226586 -27.108677024189262
			vertex -504.35306514775425 -96.7771392705001 -858.0567542022172
			vertex -966.9903270415763 253.36580418833015 -27.108677024189262
		endloop
	endfacet
	facet normal -0.29784950010277444 0.809017005957191 -0.5067318416683422
		outer loop
			vertex 571.8509321217537 819.9090244226586 -27.108677024189262
			vertex -966.9903270415763 253.36580418833015 -27.108677024189262
			vertex -301.85955043609437 819.9090244226586 486.4454537121482
		endloop
	endfacet
	facet normal -0.29784951990588804 0.8090170006797924 -0.5067318384539344
		outer loop
			vertex -504.35306514775425 -96.7771392705001 -858.0567542022172
			vertex 571.8509321217537 819.9090244226586 -27.108677024189262
			vertex 446.7030050979282 253.36580418833015 -858.0567542022172
		endloop
	endfacet
endsolid Pentagonal Prism
